./vision_disc_images/PNGImages/TUGraz_bike/bike_002.png,./vision_disc_images/GTMasks/TUGraz_bike/bike_002.png
./vision_disc_images/PNGImages/TUGraz_bike/bike_003.png,./vision_disc_images/GTMasks/TUGraz_bike/bike_003.png
./vision_disc_images/PNGImages/TUGraz_bike/bike_005.png,./vision_disc_images/GTMasks/TUGraz_bike/bike_005.png
./vision_disc_images/PNGImages/TUGraz_bike/bike_006.png,./vision_disc_images/GTMasks/TUGraz_bike/bike_006.png
./vision_disc_images/PNGImages/TUGraz_bike/bike_008.png,./vision_disc_images/GTMasks/TUGraz_bike/bike_008.png
./vision_disc_images/PNGImages/TUGraz_bike/bike_010.png,./vision_disc_images/GTMasks/TUGraz_bike/bike_010.png
./vision_disc_images/PNGImages/TUGraz_bike/bike_013.png,./vision_disc_images/GTMasks/TUGraz_bike/bike_013.png
./vision_disc_images/PNGImages/TUGraz_bike/bike_014.png,./vision_disc_images/GTMasks/TUGraz_bike/bike_014.png
./vision_disc_images/PNGImages/TUGraz_bike/bike_018.png,./vision_disc_images/GTMasks/TUGraz_bike/bike_018.png
./vision_disc_images/PNGImages/TUGraz_bike/bike_019.png,./vision_disc_images/GTMasks/TUGraz_bike/bike_019.png
./vision_disc_images/PNGImages/TUGraz_bike/bike_020.png,./vision_disc_images/GTMasks/TUGraz_bike/bike_020.png
./vision_disc_images/PNGImages/TUGraz_bike/bike_021.png,./vision_disc_images/GTMasks/TUGraz_bike/bike_021.png
./vision_disc_images/PNGImages/TUGraz_bike/bike_022.png,./vision_disc_images/GTMasks/TUGraz_bike/bike_022.png
./vision_disc_images/PNGImages/TUGraz_bike/bike_024.png,./vision_disc_images/GTMasks/TUGraz_bike/bike_024.png
./vision_disc_images/PNGImages/TUGraz_bike/bike_025.png,./vision_disc_images/GTMasks/TUGraz_bike/bike_025.png
./vision_disc_images/PNGImages/TUGraz_bike/bike_027.png,./vision_disc_images/GTMasks/TUGraz_bike/bike_027.png
./vision_disc_images/PNGImages/TUGraz_bike/bike_028.png,./vision_disc_images/GTMasks/TUGraz_bike/bike_028.png
./vision_disc_images/PNGImages/TUGraz_bike/bike_029.png,./vision_disc_images/GTMasks/TUGraz_bike/bike_029.png
./vision_disc_images/PNGImages/TUGraz_bike/bike_030.png,./vision_disc_images/GTMasks/TUGraz_bike/bike_030.png
./vision_disc_images/PNGImages/TUGraz_bike/bike_032.png,./vision_disc_images/GTMasks/TUGraz_bike/bike_032.png
./vision_disc_images/PNGImages/TUGraz_bike/bike_035.png,./vision_disc_images/GTMasks/TUGraz_bike/bike_035.png
./vision_disc_images/PNGImages/TUGraz_bike/bike_036.png,./vision_disc_images/GTMasks/TUGraz_bike/bike_036.png
./vision_disc_images/PNGImages/TUGraz_bike/bike_037.png,./vision_disc_images/GTMasks/TUGraz_bike/bike_037.png
./vision_disc_images/PNGImages/TUGraz_bike/bike_039.png,./vision_disc_images/GTMasks/TUGraz_bike/bike_039.png
./vision_disc_images/PNGImages/TUGraz_bike/bike_041.png,./vision_disc_images/GTMasks/TUGraz_bike/bike_041.png
./vision_disc_images/PNGImages/TUGraz_bike/bike_042.png,./vision_disc_images/GTMasks/TUGraz_bike/bike_042.png
./vision_disc_images/PNGImages/TUGraz_bike/bike_043.png,./vision_disc_images/GTMasks/TUGraz_bike/bike_043.png
./vision_disc_images/PNGImages/TUGraz_bike/bike_045.png,./vision_disc_images/GTMasks/TUGraz_bike/bike_045.png
./vision_disc_images/PNGImages/TUGraz_bike/bike_049.png,./vision_disc_images/GTMasks/TUGraz_bike/bike_049.png
./vision_disc_images/PNGImages/TUGraz_bike/bike_050.png,./vision_disc_images/GTMasks/TUGraz_bike/bike_050.png
./vision_disc_images/PNGImages/TUGraz_bike/bike_051.png,./vision_disc_images/GTMasks/TUGraz_bike/bike_051.png
./vision_disc_images/PNGImages/TUGraz_bike/bike_053.png,./vision_disc_images/GTMasks/TUGraz_bike/bike_053.png
./vision_disc_images/PNGImages/TUGraz_bike/bike_054.png,./vision_disc_images/GTMasks/TUGraz_bike/bike_054.png
./vision_disc_images/PNGImages/TUGraz_bike/bike_055.png,./vision_disc_images/GTMasks/TUGraz_bike/bike_055.png
./vision_disc_images/PNGImages/TUGraz_bike/bike_056.png,./vision_disc_images/GTMasks/TUGraz_bike/bike_056.png
./vision_disc_images/PNGImages/TUGraz_bike/bike_057.png,./vision_disc_images/GTMasks/TUGraz_bike/bike_057.png
./vision_disc_images/PNGImages/TUGraz_bike/bike_058.png,./vision_disc_images/GTMasks/TUGraz_bike/bike_058.png
./vision_disc_images/PNGImages/TUGraz_bike/bike_059.png,./vision_disc_images/GTMasks/TUGraz_bike/bike_059.png
./vision_disc_images/PNGImages/TUGraz_bike/bike_060.png,./vision_disc_images/GTMasks/TUGraz_bike/bike_060.png
./vision_disc_images/PNGImages/TUGraz_bike/bike_061.png,./vision_disc_images/GTMasks/TUGraz_bike/bike_061.png
./vision_disc_images/PNGImages/TUGraz_bike/bike_063.png,./vision_disc_images/GTMasks/TUGraz_bike/bike_063.png
./vision_disc_images/PNGImages/TUGraz_bike/bike_064.png,./vision_disc_images/GTMasks/TUGraz_bike/bike_064.png
./vision_disc_images/PNGImages/TUGraz_bike/bike_067.png,./vision_disc_images/GTMasks/TUGraz_bike/bike_067.png
./vision_disc_images/PNGImages/TUGraz_bike/bike_068.png,./vision_disc_images/GTMasks/TUGraz_bike/bike_068.png
./vision_disc_images/PNGImages/TUGraz_bike/bike_069.png,./vision_disc_images/GTMasks/TUGraz_bike/bike_069.png
./vision_disc_images/PNGImages/TUGraz_bike/bike_070.png,./vision_disc_images/GTMasks/TUGraz_bike/bike_070.png
./vision_disc_images/PNGImages/TUGraz_bike/bike_071.png,./vision_disc_images/GTMasks/TUGraz_bike/bike_071.png
./vision_disc_images/PNGImages/TUGraz_bike/bike_072.png,./vision_disc_images/GTMasks/TUGraz_bike/bike_072.png
./vision_disc_images/PNGImages/TUGraz_bike/bike_075.png,./vision_disc_images/GTMasks/TUGraz_bike/bike_075.png
./vision_disc_images/PNGImages/TUGraz_bike/bike_076.png,./vision_disc_images/GTMasks/TUGraz_bike/bike_076.png
./vision_disc_images/PNGImages/TUGraz_bike/bike_078.png,./vision_disc_images/GTMasks/TUGraz_bike/bike_078.png
./vision_disc_images/PNGImages/TUGraz_bike/bike_084.png,./vision_disc_images/GTMasks/TUGraz_bike/bike_084.png
./vision_disc_images/PNGImages/TUGraz_bike/bike_091.png,./vision_disc_images/GTMasks/TUGraz_bike/bike_091.png
./vision_disc_images/PNGImages/TUGraz_bike/bike_092.png,./vision_disc_images/GTMasks/TUGraz_bike/bike_092.png
./vision_disc_images/PNGImages/TUGraz_bike/bike_093.png,./vision_disc_images/GTMasks/TUGraz_bike/bike_093.png
./vision_disc_images/PNGImages/TUGraz_bike/bike_094.png,./vision_disc_images/GTMasks/TUGraz_bike/bike_094.png
./vision_disc_images/PNGImages/TUGraz_bike/bike_095.png,./vision_disc_images/GTMasks/TUGraz_bike/bike_095.png
./vision_disc_images/PNGImages/TUGraz_bike/bike_096.png,./vision_disc_images/GTMasks/TUGraz_bike/bike_096.png
./vision_disc_images/PNGImages/TUGraz_bike/bike_097.png,./vision_disc_images/GTMasks/TUGraz_bike/bike_097.png
./vision_disc_images/PNGImages/TUGraz_bike/bike_099.png,./vision_disc_images/GTMasks/TUGraz_bike/bike_099.png
./vision_disc_images/PNGImages/TUGraz_bike/bike_100.png,./vision_disc_images/GTMasks/TUGraz_bike/bike_100.png
./vision_disc_images/PNGImages/TUGraz_bike/bike_101.png,./vision_disc_images/GTMasks/TUGraz_bike/bike_101.png
./vision_disc_images/PNGImages/TUGraz_bike/bike_102.png,./vision_disc_images/GTMasks/TUGraz_bike/bike_102.png
./vision_disc_images/PNGImages/TUGraz_bike/bike_103.png,./vision_disc_images/GTMasks/TUGraz_bike/bike_103.png
./vision_disc_images/PNGImages/TUGraz_bike/bike_104.png,./vision_disc_images/GTMasks/TUGraz_bike/bike_104.png
./vision_disc_images/PNGImages/TUGraz_bike/bike_105.png,./vision_disc_images/GTMasks/TUGraz_bike/bike_105.png
./vision_disc_images/PNGImages/TUGraz_bike/bike_106.png,./vision_disc_images/GTMasks/TUGraz_bike/bike_106.png
./vision_disc_images/PNGImages/TUGraz_bike/bike_107.png,./vision_disc_images/GTMasks/TUGraz_bike/bike_107.png
./vision_disc_images/PNGImages/TUGraz_bike/bike_108.png,./vision_disc_images/GTMasks/TUGraz_bike/bike_108.png
./vision_disc_images/PNGImages/TUGraz_bike/bike_109.png,./vision_disc_images/GTMasks/TUGraz_bike/bike_109.png
./vision_disc_images/PNGImages/TUGraz_bike/bike_110.png,./vision_disc_images/GTMasks/TUGraz_bike/bike_110.png
./vision_disc_images/PNGImages/TUGraz_bike/bike_111.png,./vision_disc_images/GTMasks/TUGraz_bike/bike_111.png
./vision_disc_images/PNGImages/TUGraz_bike/bike_113.png,./vision_disc_images/GTMasks/TUGraz_bike/bike_113.png
./vision_disc_images/PNGImages/TUGraz_bike/bike_114.png,./vision_disc_images/GTMasks/TUGraz_bike/bike_114.png
./vision_disc_images/PNGImages/TUGraz_bike/bike_115.png,./vision_disc_images/GTMasks/TUGraz_bike/bike_115.png
./vision_disc_images/PNGImages/TUGraz_bike/bike_116.png,./vision_disc_images/GTMasks/TUGraz_bike/bike_116.png
./vision_disc_images/PNGImages/TUGraz_bike/bike_117.png,./vision_disc_images/GTMasks/TUGraz_bike/bike_117.png
./vision_disc_images/PNGImages/TUGraz_bike/bike_118.png,./vision_disc_images/GTMasks/TUGraz_bike/bike_118.png
./vision_disc_images/PNGImages/TUGraz_bike/bike_119.png,./vision_disc_images/GTMasks/TUGraz_bike/bike_119.png
./vision_disc_images/PNGImages/TUGraz_bike/bike_120.png,./vision_disc_images/GTMasks/TUGraz_bike/bike_120.png
./vision_disc_images/PNGImages/TUGraz_bike/bike_121.png,./vision_disc_images/GTMasks/TUGraz_bike/bike_121.png
./vision_disc_images/PNGImages/TUGraz_bike/bike_123.png,./vision_disc_images/GTMasks/TUGraz_bike/bike_123.png
./vision_disc_images/PNGImages/TUGraz_bike/bike_124.png,./vision_disc_images/GTMasks/TUGraz_bike/bike_124.png
./vision_disc_images/PNGImages/TUGraz_bike/bike_125.png,./vision_disc_images/GTMasks/TUGraz_bike/bike_125.png
./vision_disc_images/PNGImages/TUGraz_bike/bike_126.png,./vision_disc_images/GTMasks/TUGraz_bike/bike_126.png
./vision_disc_images/PNGImages/TUGraz_bike/bike_127.png,./vision_disc_images/GTMasks/TUGraz_bike/bike_127.png
./vision_disc_images/PNGImages/TUGraz_bike/bike_128.png,./vision_disc_images/GTMasks/TUGraz_bike/bike_128.png
./vision_disc_images/PNGImages/TUGraz_bike/bike_130.png,./vision_disc_images/GTMasks/TUGraz_bike/bike_130.png
./vision_disc_images/PNGImages/TUGraz_bike/bike_131.png,./vision_disc_images/GTMasks/TUGraz_bike/bike_131.png
./vision_disc_images/PNGImages/TUGraz_bike/bike_132.png,./vision_disc_images/GTMasks/TUGraz_bike/bike_132.png
./vision_disc_images/PNGImages/TUGraz_bike/bike_133.png,./vision_disc_images/GTMasks/TUGraz_bike/bike_133.png
./vision_disc_images/PNGImages/TUGraz_bike/bike_134.png,./vision_disc_images/GTMasks/TUGraz_bike/bike_134.png
./vision_disc_images/PNGImages/TUGraz_bike/bike_135.png,./vision_disc_images/GTMasks/TUGraz_bike/bike_135.png
./vision_disc_images/PNGImages/TUGraz_bike/bike_136.png,./vision_disc_images/GTMasks/TUGraz_bike/bike_136.png
./vision_disc_images/PNGImages/TUGraz_bike/bike_137.png,./vision_disc_images/GTMasks/TUGraz_bike/bike_137.png
./vision_disc_images/PNGImages/TUGraz_bike/bike_138.png,./vision_disc_images/GTMasks/TUGraz_bike/bike_138.png
./vision_disc_images/PNGImages/TUGraz_bike/bike_139.png,./vision_disc_images/GTMasks/TUGraz_bike/bike_139.png
./vision_disc_images/PNGImages/TUGraz_bike/bike_140.png,./vision_disc_images/GTMasks/TUGraz_bike/bike_140.png
./vision_disc_images/PNGImages/TUGraz_bike/bike_142.png,./vision_disc_images/GTMasks/TUGraz_bike/bike_142.png
./vision_disc_images/PNGImages/TUGraz_bike/bike_143.png,./vision_disc_images/GTMasks/TUGraz_bike/bike_143.png
./vision_disc_images/PNGImages/TUGraz_bike/bike_144.png,./vision_disc_images/GTMasks/TUGraz_bike/bike_144.png
./vision_disc_images/PNGImages/TUGraz_bike/bike_145.png,./vision_disc_images/GTMasks/TUGraz_bike/bike_145.png
./vision_disc_images/PNGImages/TUGraz_bike/bike_146.png,./vision_disc_images/GTMasks/TUGraz_bike/bike_146.png
./vision_disc_images/PNGImages/TUGraz_bike/bike_147.png,./vision_disc_images/GTMasks/TUGraz_bike/bike_147.png
./vision_disc_images/PNGImages/TUGraz_bike/bike_148.png,./vision_disc_images/GTMasks/TUGraz_bike/bike_148.png
./vision_disc_images/PNGImages/TUGraz_bike/bike_149.png,./vision_disc_images/GTMasks/TUGraz_bike/bike_149.png
./vision_disc_images/PNGImages/TUGraz_bike/bike_151.png,./vision_disc_images/GTMasks/TUGraz_bike/bike_151.png
./vision_disc_images/PNGImages/TUGraz_bike/bike_152.png,./vision_disc_images/GTMasks/TUGraz_bike/bike_152.png
./vision_disc_images/PNGImages/TUGraz_bike/bike_153.png,./vision_disc_images/GTMasks/TUGraz_bike/bike_153.png
./vision_disc_images/PNGImages/TUGraz_bike/bike_155.png,./vision_disc_images/GTMasks/TUGraz_bike/bike_155.png
./vision_disc_images/PNGImages/TUGraz_bike/bike_156.png,./vision_disc_images/GTMasks/TUGraz_bike/bike_156.png
./vision_disc_images/PNGImages/TUGraz_bike/bike_157.png,./vision_disc_images/GTMasks/TUGraz_bike/bike_157.png
./vision_disc_images/PNGImages/TUGraz_bike/bike_158.png,./vision_disc_images/GTMasks/TUGraz_bike/bike_158.png
./vision_disc_images/PNGImages/TUGraz_bike/bike_159.png,./vision_disc_images/GTMasks/TUGraz_bike/bike_159.png
./vision_disc_images/PNGImages/TUGraz_bike/bike_160.png,./vision_disc_images/GTMasks/TUGraz_bike/bike_160.png
./vision_disc_images/PNGImages/TUGraz_bike/bike_161.png,./vision_disc_images/GTMasks/TUGraz_bike/bike_161.png
./vision_disc_images/PNGImages/TUGraz_bike/bike_162.png,./vision_disc_images/GTMasks/TUGraz_bike/bike_162.png
./vision_disc_images/PNGImages/TUGraz_bike/bike_163.png,./vision_disc_images/GTMasks/TUGraz_bike/bike_163.png
./vision_disc_images/PNGImages/TUGraz_bike/bike_164.png,./vision_disc_images/GTMasks/TUGraz_bike/bike_164.png
./vision_disc_images/PNGImages/TUGraz_bike/bike_165.png,./vision_disc_images/GTMasks/TUGraz_bike/bike_165.png
./vision_disc_images/PNGImages/TUGraz_bike/bike_166.png,./vision_disc_images/GTMasks/TUGraz_bike/bike_166.png
./vision_disc_images/PNGImages/TUGraz_bike/bike_167.png,./vision_disc_images/GTMasks/TUGraz_bike/bike_167.png
./vision_disc_images/PNGImages/TUGraz_bike/bike_168.png,./vision_disc_images/GTMasks/TUGraz_bike/bike_168.png
./vision_disc_images/PNGImages/TUGraz_bike/bike_169.png,./vision_disc_images/GTMasks/TUGraz_bike/bike_169.png
./vision_disc_images/PNGImages/TUGraz_bike/bike_170.png,./vision_disc_images/GTMasks/TUGraz_bike/bike_170.png
./vision_disc_images/PNGImages/TUGraz_bike/bike_171.png,./vision_disc_images/GTMasks/TUGraz_bike/bike_171.png
./vision_disc_images/PNGImages/TUGraz_bike/bike_172.png,./vision_disc_images/GTMasks/TUGraz_bike/bike_172.png
./vision_disc_images/PNGImages/TUGraz_bike/bike_173.png,./vision_disc_images/GTMasks/TUGraz_bike/bike_173.png
./vision_disc_images/PNGImages/TUGraz_bike/bike_174.png,./vision_disc_images/GTMasks/TUGraz_bike/bike_174.png
./vision_disc_images/PNGImages/TUGraz_bike/bike_175.png,./vision_disc_images/GTMasks/TUGraz_bike/bike_175.png
./vision_disc_images/PNGImages/TUGraz_bike/bike_176.png,./vision_disc_images/GTMasks/TUGraz_bike/bike_176.png
./vision_disc_images/PNGImages/TUGraz_bike/bike_177.png,./vision_disc_images/GTMasks/TUGraz_bike/bike_177.png
./vision_disc_images/PNGImages/TUGraz_bike/bike_178.png,./vision_disc_images/GTMasks/TUGraz_bike/bike_178.png
./vision_disc_images/PNGImages/TUGraz_bike/bike_179.png,./vision_disc_images/GTMasks/TUGraz_bike/bike_179.png
./vision_disc_images/PNGImages/TUGraz_bike/bike_180.png,./vision_disc_images/GTMasks/TUGraz_bike/bike_180.png
./vision_disc_images/PNGImages/TUGraz_bike/bike_181.png,./vision_disc_images/GTMasks/TUGraz_bike/bike_181.png
./vision_disc_images/PNGImages/TUGraz_bike/bike_183.png,./vision_disc_images/GTMasks/TUGraz_bike/bike_183.png
./vision_disc_images/PNGImages/TUGraz_bike/bike_184.png,./vision_disc_images/GTMasks/TUGraz_bike/bike_184.png
./vision_disc_images/PNGImages/TUGraz_bike/bike_185.png,./vision_disc_images/GTMasks/TUGraz_bike/bike_185.png
./vision_disc_images/PNGImages/TUGraz_bike/bike_186.png,./vision_disc_images/GTMasks/TUGraz_bike/bike_186.png
./vision_disc_images/PNGImages/TUGraz_bike/bike_187.png,./vision_disc_images/GTMasks/TUGraz_bike/bike_187.png
./vision_disc_images/PNGImages/TUGraz_bike/bike_189.png,./vision_disc_images/GTMasks/TUGraz_bike/bike_189.png
./vision_disc_images/PNGImages/TUGraz_bike/bike_190.png,./vision_disc_images/GTMasks/TUGraz_bike/bike_190.png
./vision_disc_images/PNGImages/TUGraz_bike/bike_191.png,./vision_disc_images/GTMasks/TUGraz_bike/bike_191.png
./vision_disc_images/PNGImages/TUGraz_bike/bike_192.png,./vision_disc_images/GTMasks/TUGraz_bike/bike_192.png
./vision_disc_images/PNGImages/TUGraz_bike/bike_193.png,./vision_disc_images/GTMasks/TUGraz_bike/bike_193.png
./vision_disc_images/PNGImages/TUGraz_bike/bike_194.png,./vision_disc_images/GTMasks/TUGraz_bike/bike_194.png
./vision_disc_images/PNGImages/TUGraz_bike/bike_195.png,./vision_disc_images/GTMasks/TUGraz_bike/bike_195.png
./vision_disc_images/PNGImages/TUGraz_bike/bike_196.png,./vision_disc_images/GTMasks/TUGraz_bike/bike_196.png
./vision_disc_images/PNGImages/TUGraz_bike/bike_197.png,./vision_disc_images/GTMasks/TUGraz_bike/bike_197.png
./vision_disc_images/PNGImages/TUGraz_bike/bike_198.png,./vision_disc_images/GTMasks/TUGraz_bike/bike_198.png
./vision_disc_images/PNGImages/TUGraz_bike/bike_199.png,./vision_disc_images/GTMasks/TUGraz_bike/bike_199.png
./vision_disc_images/PNGImages/TUGraz_bike/bike_200.png,./vision_disc_images/GTMasks/TUGraz_bike/bike_200.png
./vision_disc_images/PNGImages/TUGraz_bike/bike_201.png,./vision_disc_images/GTMasks/TUGraz_bike/bike_201.png
./vision_disc_images/PNGImages/TUGraz_bike/bike_202.png,./vision_disc_images/GTMasks/TUGraz_bike/bike_202.png
./vision_disc_images/PNGImages/TUGraz_bike/bike_203.png,./vision_disc_images/GTMasks/TUGraz_bike/bike_203.png
./vision_disc_images/PNGImages/TUGraz_bike/bike_204.png,./vision_disc_images/GTMasks/TUGraz_bike/bike_204.png
./vision_disc_images/PNGImages/TUGraz_bike/bike_205.png,./vision_disc_images/GTMasks/TUGraz_bike/bike_205.png
./vision_disc_images/PNGImages/TUGraz_bike/bike_206.png,./vision_disc_images/GTMasks/TUGraz_bike/bike_206.png
./vision_disc_images/PNGImages/TUGraz_bike/bike_207.png,./vision_disc_images/GTMasks/TUGraz_bike/bike_207.png
./vision_disc_images/PNGImages/TUGraz_bike/bike_208.png,./vision_disc_images/GTMasks/TUGraz_bike/bike_208.png
./vision_disc_images/PNGImages/TUGraz_bike/bike_209.png,./vision_disc_images/GTMasks/TUGraz_bike/bike_209.png
./vision_disc_images/PNGImages/TUGraz_bike/bike_210.png,./vision_disc_images/GTMasks/TUGraz_bike/bike_210.png
./vision_disc_images/PNGImages/TUGraz_bike/bike_211.png,./vision_disc_images/GTMasks/TUGraz_bike/bike_211.png
./vision_disc_images/PNGImages/TUGraz_bike/bike_212.png,./vision_disc_images/GTMasks/TUGraz_bike/bike_212.png
./vision_disc_images/PNGImages/TUGraz_bike/bike_213.png,./vision_disc_images/GTMasks/TUGraz_bike/bike_213.png
./vision_disc_images/PNGImages/TUGraz_bike/bike_214.png,./vision_disc_images/GTMasks/TUGraz_bike/bike_214.png
./vision_disc_images/PNGImages/TUGraz_bike/bike_215.png,./vision_disc_images/GTMasks/TUGraz_bike/bike_215.png
./vision_disc_images/PNGImages/TUGraz_bike/bike_216.png,./vision_disc_images/GTMasks/TUGraz_bike/bike_216.png
./vision_disc_images/PNGImages/TUGraz_bike/bike_217.png,./vision_disc_images/GTMasks/TUGraz_bike/bike_217.png
./vision_disc_images/PNGImages/TUGraz_bike/bike_218.png,./vision_disc_images/GTMasks/TUGraz_bike/bike_218.png
./vision_disc_images/PNGImages/TUGraz_bike/bike_219.png,./vision_disc_images/GTMasks/TUGraz_bike/bike_219.png
./vision_disc_images/PNGImages/TUGraz_bike/bike_220.png,./vision_disc_images/GTMasks/TUGraz_bike/bike_220.png
./vision_disc_images/PNGImages/TUGraz_bike/bike_221.png,./vision_disc_images/GTMasks/TUGraz_bike/bike_221.png
./vision_disc_images/PNGImages/TUGraz_bike/bike_222.png,./vision_disc_images/GTMasks/TUGraz_bike/bike_222.png
./vision_disc_images/PNGImages/TUGraz_bike/bike_223.png,./vision_disc_images/GTMasks/TUGraz_bike/bike_223.png
./vision_disc_images/PNGImages/TUGraz_bike/bike_224.png,./vision_disc_images/GTMasks/TUGraz_bike/bike_224.png
./vision_disc_images/PNGImages/TUGraz_bike/bike_225.png,./vision_disc_images/GTMasks/TUGraz_bike/bike_225.png
./vision_disc_images/PNGImages/TUGraz_bike/bike_226.png,./vision_disc_images/GTMasks/TUGraz_bike/bike_226.png
./vision_disc_images/PNGImages/TUGraz_bike/bike_227.png,./vision_disc_images/GTMasks/TUGraz_bike/bike_227.png
./vision_disc_images/PNGImages/TUGraz_bike/bike_228.png,./vision_disc_images/GTMasks/TUGraz_bike/bike_228.png
./vision_disc_images/PNGImages/TUGraz_bike/bike_229.png,./vision_disc_images/GTMasks/TUGraz_bike/bike_229.png
./vision_disc_images/PNGImages/TUGraz_bike/bike_230.png,./vision_disc_images/GTMasks/TUGraz_bike/bike_230.png
./vision_disc_images/PNGImages/TUGraz_bike/bike_231.png,./vision_disc_images/GTMasks/TUGraz_bike/bike_231.png
./vision_disc_images/PNGImages/TUGraz_bike/bike_232.png,./vision_disc_images/GTMasks/TUGraz_bike/bike_232.png
./vision_disc_images/PNGImages/TUGraz_bike/bike_235.png,./vision_disc_images/GTMasks/TUGraz_bike/bike_235.png
./vision_disc_images/PNGImages/TUGraz_bike/bike_237.png,./vision_disc_images/GTMasks/TUGraz_bike/bike_237.png
./vision_disc_images/PNGImages/TUGraz_bike/bike_240.png,./vision_disc_images/GTMasks/TUGraz_bike/bike_240.png
./vision_disc_images/PNGImages/TUGraz_bike/bike_241.png,./vision_disc_images/GTMasks/TUGraz_bike/bike_241.png
./vision_disc_images/PNGImages/TUGraz_bike/bike_242.png,./vision_disc_images/GTMasks/TUGraz_bike/bike_242.png
./vision_disc_images/PNGImages/TUGraz_bike/bike_243.png,./vision_disc_images/GTMasks/TUGraz_bike/bike_243.png
./vision_disc_images/PNGImages/TUGraz_bike/bike_249.png,./vision_disc_images/GTMasks/TUGraz_bike/bike_249.png
./vision_disc_images/PNGImages/TUGraz_bike/bike_267.png,./vision_disc_images/GTMasks/TUGraz_bike/bike_267.png
./vision_disc_images/PNGImages/TUGraz_bike/bike_268.png,./vision_disc_images/GTMasks/TUGraz_bike/bike_268.png
./vision_disc_images/PNGImages/TUGraz_bike/bike_269.png,./vision_disc_images/GTMasks/TUGraz_bike/bike_269.png
./vision_disc_images/PNGImages/TUGraz_bike/bike_270.png,./vision_disc_images/GTMasks/TUGraz_bike/bike_270.png
./vision_disc_images/PNGImages/TUGraz_bike/bike_273.png,./vision_disc_images/GTMasks/TUGraz_bike/bike_273.png
./vision_disc_images/PNGImages/TUGraz_bike/bike_274.png,./vision_disc_images/GTMasks/TUGraz_bike/bike_274.png
./vision_disc_images/PNGImages/TUGraz_bike/bike_281.png,./vision_disc_images/GTMasks/TUGraz_bike/bike_281.png
./vision_disc_images/PNGImages/TUGraz_bike/bike_282.png,./vision_disc_images/GTMasks/TUGraz_bike/bike_282.png
./vision_disc_images/PNGImages/TUGraz_bike/bike_283.png,./vision_disc_images/GTMasks/TUGraz_bike/bike_283.png
./vision_disc_images/PNGImages/TUGraz_bike/bike_290.png,./vision_disc_images/GTMasks/TUGraz_bike/bike_290.png
./vision_disc_images/PNGImages/TUGraz_bike/bike_293.png,./vision_disc_images/GTMasks/TUGraz_bike/bike_293.png
./vision_disc_images/PNGImages/TUGraz_bike/bike_295.png,./vision_disc_images/GTMasks/TUGraz_bike/bike_295.png
./vision_disc_images/PNGImages/TUGraz_bike/bike_299.png,./vision_disc_images/GTMasks/TUGraz_bike/bike_299.png
./vision_disc_images/PNGImages/TUGraz_bike/bike_300.png,./vision_disc_images/GTMasks/TUGraz_bike/bike_300.png
./vision_disc_images/PNGImages/TUGraz_cars/carsgraz_001.png,./vision_disc_images/GTMasks/TUGraz_cars/carsgraz_001.png
./vision_disc_images/PNGImages/TUGraz_cars/carsgraz_003.png,./vision_disc_images/GTMasks/TUGraz_cars/carsgraz_003.png
./vision_disc_images/PNGImages/TUGraz_cars/carsgraz_004.png,./vision_disc_images/GTMasks/TUGraz_cars/carsgraz_004.png
./vision_disc_images/PNGImages/TUGraz_cars/carsgraz_005.png,./vision_disc_images/GTMasks/TUGraz_cars/carsgraz_005.png
./vision_disc_images/PNGImages/TUGraz_cars/carsgraz_006.png,./vision_disc_images/GTMasks/TUGraz_cars/carsgraz_006.png
./vision_disc_images/PNGImages/TUGraz_cars/carsgraz_007.png,./vision_disc_images/GTMasks/TUGraz_cars/carsgraz_007.png
./vision_disc_images/PNGImages/TUGraz_cars/carsgraz_008.png,./vision_disc_images/GTMasks/TUGraz_cars/carsgraz_008.png
./vision_disc_images/PNGImages/TUGraz_cars/carsgraz_010.png,./vision_disc_images/GTMasks/TUGraz_cars/carsgraz_010.png
./vision_disc_images/PNGImages/TUGraz_cars/carsgraz_011.png,./vision_disc_images/GTMasks/TUGraz_cars/carsgraz_011.png
./vision_disc_images/PNGImages/TUGraz_cars/carsgraz_012.png,./vision_disc_images/GTMasks/TUGraz_cars/carsgraz_012.png
./vision_disc_images/PNGImages/TUGraz_cars/carsgraz_013.png,./vision_disc_images/GTMasks/TUGraz_cars/carsgraz_013.png
./vision_disc_images/PNGImages/TUGraz_cars/carsgraz_015.png,./vision_disc_images/GTMasks/TUGraz_cars/carsgraz_015.png
./vision_disc_images/PNGImages/TUGraz_cars/carsgraz_016.png,./vision_disc_images/GTMasks/TUGraz_cars/carsgraz_016.png
./vision_disc_images/PNGImages/TUGraz_cars/carsgraz_017.png,./vision_disc_images/GTMasks/TUGraz_cars/carsgraz_017.png
./vision_disc_images/PNGImages/TUGraz_cars/carsgraz_018.png,./vision_disc_images/GTMasks/TUGraz_cars/carsgraz_018.png
./vision_disc_images/PNGImages/TUGraz_cars/carsgraz_020.png,./vision_disc_images/GTMasks/TUGraz_cars/carsgraz_020.png
./vision_disc_images/PNGImages/TUGraz_cars/carsgraz_022.png,./vision_disc_images/GTMasks/TUGraz_cars/carsgraz_022.png
./vision_disc_images/PNGImages/TUGraz_cars/carsgraz_023.png,./vision_disc_images/GTMasks/TUGraz_cars/carsgraz_023.png
./vision_disc_images/PNGImages/TUGraz_cars/carsgraz_025.png,./vision_disc_images/GTMasks/TUGraz_cars/carsgraz_025.png
./vision_disc_images/PNGImages/TUGraz_cars/carsgraz_026.png,./vision_disc_images/GTMasks/TUGraz_cars/carsgraz_026.png
./vision_disc_images/PNGImages/TUGraz_cars/carsgraz_027.png,./vision_disc_images/GTMasks/TUGraz_cars/carsgraz_027.png
./vision_disc_images/PNGImages/TUGraz_cars/carsgraz_028.png,./vision_disc_images/GTMasks/TUGraz_cars/carsgraz_028.png
./vision_disc_images/PNGImages/TUGraz_cars/carsgraz_029.png,./vision_disc_images/GTMasks/TUGraz_cars/carsgraz_029.png
./vision_disc_images/PNGImages/TUGraz_cars/carsgraz_030.png,./vision_disc_images/GTMasks/TUGraz_cars/carsgraz_030.png
./vision_disc_images/PNGImages/TUGraz_cars/carsgraz_033.png,./vision_disc_images/GTMasks/TUGraz_cars/carsgraz_033.png
./vision_disc_images/PNGImages/TUGraz_cars/carsgraz_034.png,./vision_disc_images/GTMasks/TUGraz_cars/carsgraz_034.png
./vision_disc_images/PNGImages/TUGraz_cars/carsgraz_035.png,./vision_disc_images/GTMasks/TUGraz_cars/carsgraz_035.png
./vision_disc_images/PNGImages/TUGraz_cars/carsgraz_036.png,./vision_disc_images/GTMasks/TUGraz_cars/carsgraz_036.png
./vision_disc_images/PNGImages/TUGraz_cars/carsgraz_037.png,./vision_disc_images/GTMasks/TUGraz_cars/carsgraz_037.png
./vision_disc_images/PNGImages/TUGraz_cars/carsgraz_038.png,./vision_disc_images/GTMasks/TUGraz_cars/carsgraz_038.png
./vision_disc_images/PNGImages/TUGraz_cars/carsgraz_039.png,./vision_disc_images/GTMasks/TUGraz_cars/carsgraz_039.png
./vision_disc_images/PNGImages/TUGraz_cars/carsgraz_040.png,./vision_disc_images/GTMasks/TUGraz_cars/carsgraz_040.png
./vision_disc_images/PNGImages/TUGraz_cars/carsgraz_042.png,./vision_disc_images/GTMasks/TUGraz_cars/carsgraz_042.png
./vision_disc_images/PNGImages/TUGraz_cars/carsgraz_043.png,./vision_disc_images/GTMasks/TUGraz_cars/carsgraz_043.png
./vision_disc_images/PNGImages/TUGraz_cars/carsgraz_044.png,./vision_disc_images/GTMasks/TUGraz_cars/carsgraz_044.png
./vision_disc_images/PNGImages/TUGraz_cars/carsgraz_046.png,./vision_disc_images/GTMasks/TUGraz_cars/carsgraz_046.png
./vision_disc_images/PNGImages/TUGraz_cars/carsgraz_047.png,./vision_disc_images/GTMasks/TUGraz_cars/carsgraz_047.png
./vision_disc_images/PNGImages/TUGraz_cars/carsgraz_048.png,./vision_disc_images/GTMasks/TUGraz_cars/carsgraz_048.png
./vision_disc_images/PNGImages/TUGraz_cars/carsgraz_049.png,./vision_disc_images/GTMasks/TUGraz_cars/carsgraz_049.png
./vision_disc_images/PNGImages/TUGraz_cars/carsgraz_050.png,./vision_disc_images/GTMasks/TUGraz_cars/carsgraz_050.png
./vision_disc_images/PNGImages/TUGraz_cars/carsgraz_052.png,./vision_disc_images/GTMasks/TUGraz_cars/carsgraz_052.png
./vision_disc_images/PNGImages/TUGraz_cars/carsgraz_053.png,./vision_disc_images/GTMasks/TUGraz_cars/carsgraz_053.png
./vision_disc_images/PNGImages/TUGraz_cars/carsgraz_054.png,./vision_disc_images/GTMasks/TUGraz_cars/carsgraz_054.png
./vision_disc_images/PNGImages/TUGraz_cars/carsgraz_055.png,./vision_disc_images/GTMasks/TUGraz_cars/carsgraz_055.png
./vision_disc_images/PNGImages/TUGraz_cars/carsgraz_058.png,./vision_disc_images/GTMasks/TUGraz_cars/carsgraz_058.png
./vision_disc_images/PNGImages/TUGraz_cars/carsgraz_063.png,./vision_disc_images/GTMasks/TUGraz_cars/carsgraz_063.png
./vision_disc_images/PNGImages/TUGraz_cars/carsgraz_065.png,./vision_disc_images/GTMasks/TUGraz_cars/carsgraz_065.png
./vision_disc_images/PNGImages/TUGraz_cars/carsgraz_066.png,./vision_disc_images/GTMasks/TUGraz_cars/carsgraz_066.png
./vision_disc_images/PNGImages/TUGraz_cars/carsgraz_067.png,./vision_disc_images/GTMasks/TUGraz_cars/carsgraz_067.png
./vision_disc_images/PNGImages/TUGraz_cars/carsgraz_068.png,./vision_disc_images/GTMasks/TUGraz_cars/carsgraz_068.png
./vision_disc_images/PNGImages/TUGraz_cars/carsgraz_069.png,./vision_disc_images/GTMasks/TUGraz_cars/carsgraz_069.png
./vision_disc_images/PNGImages/TUGraz_cars/carsgraz_071.png,./vision_disc_images/GTMasks/TUGraz_cars/carsgraz_071.png
./vision_disc_images/PNGImages/TUGraz_cars/carsgraz_074.png,./vision_disc_images/GTMasks/TUGraz_cars/carsgraz_074.png
./vision_disc_images/PNGImages/TUGraz_cars/carsgraz_075.png,./vision_disc_images/GTMasks/TUGraz_cars/carsgraz_075.png
./vision_disc_images/PNGImages/TUGraz_cars/carsgraz_076.png,./vision_disc_images/GTMasks/TUGraz_cars/carsgraz_076.png
./vision_disc_images/PNGImages/TUGraz_cars/carsgraz_078.png,./vision_disc_images/GTMasks/TUGraz_cars/carsgraz_078.png
./vision_disc_images/PNGImages/TUGraz_cars/carsgraz_079.png,./vision_disc_images/GTMasks/TUGraz_cars/carsgraz_079.png
./vision_disc_images/PNGImages/TUGraz_cars/carsgraz_082.png,./vision_disc_images/GTMasks/TUGraz_cars/carsgraz_082.png
./vision_disc_images/PNGImages/TUGraz_cars/carsgraz_084.png,./vision_disc_images/GTMasks/TUGraz_cars/carsgraz_084.png
./vision_disc_images/PNGImages/TUGraz_cars/carsgraz_085.png,./vision_disc_images/GTMasks/TUGraz_cars/carsgraz_085.png
./vision_disc_images/PNGImages/TUGraz_cars/carsgraz_086.png,./vision_disc_images/GTMasks/TUGraz_cars/carsgraz_086.png
./vision_disc_images/PNGImages/TUGraz_cars/carsgraz_088.png,./vision_disc_images/GTMasks/TUGraz_cars/carsgraz_088.png
./vision_disc_images/PNGImages/TUGraz_cars/carsgraz_089.png,./vision_disc_images/GTMasks/TUGraz_cars/carsgraz_089.png
./vision_disc_images/PNGImages/TUGraz_cars/carsgraz_090.png,./vision_disc_images/GTMasks/TUGraz_cars/carsgraz_090.png
./vision_disc_images/PNGImages/TUGraz_cars/carsgraz_092.png,./vision_disc_images/GTMasks/TUGraz_cars/carsgraz_092.png
./vision_disc_images/PNGImages/TUGraz_cars/carsgraz_093.png,./vision_disc_images/GTMasks/TUGraz_cars/carsgraz_093.png
./vision_disc_images/PNGImages/TUGraz_cars/carsgraz_095.png,./vision_disc_images/GTMasks/TUGraz_cars/carsgraz_095.png
./vision_disc_images/PNGImages/TUGraz_cars/carsgraz_096.png,./vision_disc_images/GTMasks/TUGraz_cars/carsgraz_096.png
./vision_disc_images/PNGImages/TUGraz_cars/carsgraz_097.png,./vision_disc_images/GTMasks/TUGraz_cars/carsgraz_097.png
./vision_disc_images/PNGImages/TUGraz_cars/carsgraz_101.png,./vision_disc_images/GTMasks/TUGraz_cars/carsgraz_101.png
./vision_disc_images/PNGImages/TUGraz_cars/carsgraz_103.png,./vision_disc_images/GTMasks/TUGraz_cars/carsgraz_103.png
./vision_disc_images/PNGImages/TUGraz_cars/carsgraz_104.png,./vision_disc_images/GTMasks/TUGraz_cars/carsgraz_104.png
./vision_disc_images/PNGImages/TUGraz_cars/carsgraz_105.png,./vision_disc_images/GTMasks/TUGraz_cars/carsgraz_105.png
./vision_disc_images/PNGImages/TUGraz_cars/carsgraz_106.png,./vision_disc_images/GTMasks/TUGraz_cars/carsgraz_106.png
./vision_disc_images/PNGImages/TUGraz_cars/carsgraz_111.png,./vision_disc_images/GTMasks/TUGraz_cars/carsgraz_111.png
./vision_disc_images/PNGImages/TUGraz_cars/carsgraz_112.png,./vision_disc_images/GTMasks/TUGraz_cars/carsgraz_112.png
./vision_disc_images/PNGImages/TUGraz_cars/carsgraz_113.png,./vision_disc_images/GTMasks/TUGraz_cars/carsgraz_113.png
./vision_disc_images/PNGImages/TUGraz_cars/carsgraz_114.png,./vision_disc_images/GTMasks/TUGraz_cars/carsgraz_114.png
./vision_disc_images/PNGImages/TUGraz_cars/carsgraz_115.png,./vision_disc_images/GTMasks/TUGraz_cars/carsgraz_115.png
./vision_disc_images/PNGImages/TUGraz_cars/carsgraz_117.png,./vision_disc_images/GTMasks/TUGraz_cars/carsgraz_117.png
./vision_disc_images/PNGImages/TUGraz_cars/carsgraz_118.png,./vision_disc_images/GTMasks/TUGraz_cars/carsgraz_118.png
./vision_disc_images/PNGImages/TUGraz_cars/carsgraz_119.png,./vision_disc_images/GTMasks/TUGraz_cars/carsgraz_119.png
./vision_disc_images/PNGImages/TUGraz_cars/carsgraz_120.png,./vision_disc_images/GTMasks/TUGraz_cars/carsgraz_120.png
./vision_disc_images/PNGImages/TUGraz_cars/carsgraz_123.png,./vision_disc_images/GTMasks/TUGraz_cars/carsgraz_123.png
./vision_disc_images/PNGImages/TUGraz_cars/carsgraz_125.png,./vision_disc_images/GTMasks/TUGraz_cars/carsgraz_125.png
./vision_disc_images/PNGImages/TUGraz_cars/carsgraz_126.png,./vision_disc_images/GTMasks/TUGraz_cars/carsgraz_126.png
./vision_disc_images/PNGImages/TUGraz_cars/carsgraz_127.png,./vision_disc_images/GTMasks/TUGraz_cars/carsgraz_127.png
./vision_disc_images/PNGImages/TUGraz_cars/carsgraz_132.png,./vision_disc_images/GTMasks/TUGraz_cars/carsgraz_132.png
./vision_disc_images/PNGImages/TUGraz_cars/carsgraz_133.png,./vision_disc_images/GTMasks/TUGraz_cars/carsgraz_133.png
./vision_disc_images/PNGImages/TUGraz_cars/carsgraz_134.png,./vision_disc_images/GTMasks/TUGraz_cars/carsgraz_134.png
./vision_disc_images/PNGImages/TUGraz_cars/carsgraz_136.png,./vision_disc_images/GTMasks/TUGraz_cars/carsgraz_136.png
./vision_disc_images/PNGImages/TUGraz_cars/carsgraz_138.png,./vision_disc_images/GTMasks/TUGraz_cars/carsgraz_138.png
./vision_disc_images/PNGImages/TUGraz_cars/carsgraz_139.png,./vision_disc_images/GTMasks/TUGraz_cars/carsgraz_139.png
./vision_disc_images/PNGImages/TUGraz_cars/carsgraz_140.png,./vision_disc_images/GTMasks/TUGraz_cars/carsgraz_140.png
./vision_disc_images/PNGImages/TUGraz_cars/carsgraz_141.png,./vision_disc_images/GTMasks/TUGraz_cars/carsgraz_141.png
./vision_disc_images/PNGImages/TUGraz_cars/carsgraz_142.png,./vision_disc_images/GTMasks/TUGraz_cars/carsgraz_142.png
./vision_disc_images/PNGImages/TUGraz_cars/carsgraz_143.png,./vision_disc_images/GTMasks/TUGraz_cars/carsgraz_143.png
./vision_disc_images/PNGImages/TUGraz_cars/carsgraz_145.png,./vision_disc_images/GTMasks/TUGraz_cars/carsgraz_145.png
./vision_disc_images/PNGImages/TUGraz_cars/carsgraz_146.png,./vision_disc_images/GTMasks/TUGraz_cars/carsgraz_146.png
./vision_disc_images/PNGImages/TUGraz_cars/carsgraz_147.png,./vision_disc_images/GTMasks/TUGraz_cars/carsgraz_147.png
./vision_disc_images/PNGImages/TUGraz_cars/carsgraz_150.png,./vision_disc_images/GTMasks/TUGraz_cars/carsgraz_150.png
./vision_disc_images/PNGImages/TUGraz_cars/carsgraz_153.png,./vision_disc_images/GTMasks/TUGraz_cars/carsgraz_153.png
./vision_disc_images/PNGImages/TUGraz_cars/carsgraz_154.png,./vision_disc_images/GTMasks/TUGraz_cars/carsgraz_154.png
./vision_disc_images/PNGImages/TUGraz_cars/carsgraz_155.png,./vision_disc_images/GTMasks/TUGraz_cars/carsgraz_155.png
./vision_disc_images/PNGImages/TUGraz_cars/carsgraz_156.png,./vision_disc_images/GTMasks/TUGraz_cars/carsgraz_156.png
./vision_disc_images/PNGImages/TUGraz_cars/carsgraz_157.png,./vision_disc_images/GTMasks/TUGraz_cars/carsgraz_157.png
./vision_disc_images/PNGImages/TUGraz_cars/carsgraz_159.png,./vision_disc_images/GTMasks/TUGraz_cars/carsgraz_159.png
./vision_disc_images/PNGImages/TUGraz_cars/carsgraz_160.png,./vision_disc_images/GTMasks/TUGraz_cars/carsgraz_160.png
./vision_disc_images/PNGImages/TUGraz_cars/carsgraz_161.png,./vision_disc_images/GTMasks/TUGraz_cars/carsgraz_161.png
./vision_disc_images/PNGImages/TUGraz_cars/carsgraz_162.png,./vision_disc_images/GTMasks/TUGraz_cars/carsgraz_162.png
./vision_disc_images/PNGImages/TUGraz_cars/carsgraz_163.png,./vision_disc_images/GTMasks/TUGraz_cars/carsgraz_163.png
./vision_disc_images/PNGImages/TUGraz_cars/carsgraz_167.png,./vision_disc_images/GTMasks/TUGraz_cars/carsgraz_167.png
./vision_disc_images/PNGImages/TUGraz_cars/carsgraz_168.png,./vision_disc_images/GTMasks/TUGraz_cars/carsgraz_168.png
./vision_disc_images/PNGImages/TUGraz_cars/carsgraz_169.png,./vision_disc_images/GTMasks/TUGraz_cars/carsgraz_169.png
./vision_disc_images/PNGImages/TUGraz_cars/carsgraz_170.png,./vision_disc_images/GTMasks/TUGraz_cars/carsgraz_170.png
./vision_disc_images/PNGImages/TUGraz_cars/carsgraz_171.png,./vision_disc_images/GTMasks/TUGraz_cars/carsgraz_171.png
./vision_disc_images/PNGImages/TUGraz_cars/carsgraz_179.png,./vision_disc_images/GTMasks/TUGraz_cars/carsgraz_179.png
./vision_disc_images/PNGImages/TUGraz_cars/carsgraz_180.png,./vision_disc_images/GTMasks/TUGraz_cars/carsgraz_180.png
./vision_disc_images/PNGImages/TUGraz_cars/carsgraz_181.png,./vision_disc_images/GTMasks/TUGraz_cars/carsgraz_181.png
./vision_disc_images/PNGImages/TUGraz_cars/carsgraz_185.png,./vision_disc_images/GTMasks/TUGraz_cars/carsgraz_185.png
./vision_disc_images/PNGImages/TUGraz_cars/carsgraz_191.png,./vision_disc_images/GTMasks/TUGraz_cars/carsgraz_191.png
./vision_disc_images/PNGImages/TUGraz_cars/carsgraz_196.png,./vision_disc_images/GTMasks/TUGraz_cars/carsgraz_196.png
./vision_disc_images/PNGImages/TUGraz_cars/carsgraz_199.png,./vision_disc_images/GTMasks/TUGraz_cars/carsgraz_199.png
./vision_disc_images/PNGImages/TUGraz_cars/carsgraz_201.png,./vision_disc_images/GTMasks/TUGraz_cars/carsgraz_201.png
./vision_disc_images/PNGImages/TUGraz_cars/carsgraz_204.png,./vision_disc_images/GTMasks/TUGraz_cars/carsgraz_204.png
./vision_disc_images/PNGImages/TUGraz_cars/carsgraz_205.png,./vision_disc_images/GTMasks/TUGraz_cars/carsgraz_205.png
./vision_disc_images/PNGImages/TUGraz_cars/carsgraz_206.png,./vision_disc_images/GTMasks/TUGraz_cars/carsgraz_206.png
./vision_disc_images/PNGImages/TUGraz_cars/carsgraz_207.png,./vision_disc_images/GTMasks/TUGraz_cars/carsgraz_207.png
./vision_disc_images/PNGImages/TUGraz_cars/carsgraz_208.png,./vision_disc_images/GTMasks/TUGraz_cars/carsgraz_208.png
./vision_disc_images/PNGImages/TUGraz_cars/carsgraz_209.png,./vision_disc_images/GTMasks/TUGraz_cars/carsgraz_209.png
./vision_disc_images/PNGImages/TUGraz_cars/carsgraz_211.png,./vision_disc_images/GTMasks/TUGraz_cars/carsgraz_211.png
./vision_disc_images/PNGImages/TUGraz_cars/carsgraz_213.png,./vision_disc_images/GTMasks/TUGraz_cars/carsgraz_213.png
./vision_disc_images/PNGImages/TUGraz_cars/carsgraz_214.png,./vision_disc_images/GTMasks/TUGraz_cars/carsgraz_214.png
./vision_disc_images/PNGImages/TUGraz_cars/carsgraz_215.png,./vision_disc_images/GTMasks/TUGraz_cars/carsgraz_215.png
./vision_disc_images/PNGImages/TUGraz_cars/carsgraz_219.png,./vision_disc_images/GTMasks/TUGraz_cars/carsgraz_219.png
./vision_disc_images/PNGImages/TUGraz_cars/carsgraz_221.png,./vision_disc_images/GTMasks/TUGraz_cars/carsgraz_221.png
./vision_disc_images/PNGImages/TUGraz_cars/carsgraz_222.png,./vision_disc_images/GTMasks/TUGraz_cars/carsgraz_222.png
./vision_disc_images/PNGImages/TUGraz_cars/carsgraz_223.png,./vision_disc_images/GTMasks/TUGraz_cars/carsgraz_223.png
./vision_disc_images/PNGImages/TUGraz_cars/carsgraz_224.png,./vision_disc_images/GTMasks/TUGraz_cars/carsgraz_224.png
./vision_disc_images/PNGImages/TUGraz_cars/carsgraz_225.png,./vision_disc_images/GTMasks/TUGraz_cars/carsgraz_225.png
./vision_disc_images/PNGImages/TUGraz_cars/carsgraz_227.png,./vision_disc_images/GTMasks/TUGraz_cars/carsgraz_227.png
./vision_disc_images/PNGImages/TUGraz_cars/carsgraz_229.png,./vision_disc_images/GTMasks/TUGraz_cars/carsgraz_229.png
./vision_disc_images/PNGImages/TUGraz_cars/carsgraz_230.png,./vision_disc_images/GTMasks/TUGraz_cars/carsgraz_230.png
./vision_disc_images/PNGImages/TUGraz_cars/carsgraz_232.png,./vision_disc_images/GTMasks/TUGraz_cars/carsgraz_232.png
./vision_disc_images/PNGImages/TUGraz_cars/carsgraz_233.png,./vision_disc_images/GTMasks/TUGraz_cars/carsgraz_233.png
./vision_disc_images/PNGImages/TUGraz_cars/carsgraz_234.png,./vision_disc_images/GTMasks/TUGraz_cars/carsgraz_234.png
./vision_disc_images/PNGImages/TUGraz_cars/carsgraz_235.png,./vision_disc_images/GTMasks/TUGraz_cars/carsgraz_235.png
./vision_disc_images/PNGImages/TUGraz_cars/carsgraz_236.png,./vision_disc_images/GTMasks/TUGraz_cars/carsgraz_236.png
./vision_disc_images/PNGImages/TUGraz_cars/carsgraz_237.png,./vision_disc_images/GTMasks/TUGraz_cars/carsgraz_237.png
./vision_disc_images/PNGImages/TUGraz_cars/carsgraz_238.png,./vision_disc_images/GTMasks/TUGraz_cars/carsgraz_238.png
./vision_disc_images/PNGImages/TUGraz_cars/carsgraz_239.png,./vision_disc_images/GTMasks/TUGraz_cars/carsgraz_239.png
./vision_disc_images/PNGImages/TUGraz_cars/carsgraz_242.png,./vision_disc_images/GTMasks/TUGraz_cars/carsgraz_242.png
./vision_disc_images/PNGImages/TUGraz_cars/carsgraz_243.png,./vision_disc_images/GTMasks/TUGraz_cars/carsgraz_243.png
./vision_disc_images/PNGImages/TUGraz_cars/carsgraz_244.png,./vision_disc_images/GTMasks/TUGraz_cars/carsgraz_244.png
./vision_disc_images/PNGImages/TUGraz_cars/carsgraz_245.png,./vision_disc_images/GTMasks/TUGraz_cars/carsgraz_245.png
./vision_disc_images/PNGImages/TUGraz_cars/carsgraz_246.png,./vision_disc_images/GTMasks/TUGraz_cars/carsgraz_246.png
./vision_disc_images/PNGImages/TUGraz_cars/carsgraz_248.png,./vision_disc_images/GTMasks/TUGraz_cars/carsgraz_248.png
./vision_disc_images/PNGImages/TUGraz_cars/carsgraz_249.png,./vision_disc_images/GTMasks/TUGraz_cars/carsgraz_249.png
./vision_disc_images/PNGImages/TUGraz_cars/carsgraz_250.png,./vision_disc_images/GTMasks/TUGraz_cars/carsgraz_250.png
./vision_disc_images/PNGImages/TUGraz_cars/carsgraz_251.png,./vision_disc_images/GTMasks/TUGraz_cars/carsgraz_251.png
./vision_disc_images/PNGImages/TUGraz_cars/carsgraz_253.png,./vision_disc_images/GTMasks/TUGraz_cars/carsgraz_253.png
./vision_disc_images/PNGImages/TUGraz_cars/carsgraz_254.png,./vision_disc_images/GTMasks/TUGraz_cars/carsgraz_254.png
./vision_disc_images/PNGImages/TUGraz_cars/carsgraz_256.png,./vision_disc_images/GTMasks/TUGraz_cars/carsgraz_256.png
./vision_disc_images/PNGImages/TUGraz_cars/carsgraz_257.png,./vision_disc_images/GTMasks/TUGraz_cars/carsgraz_257.png
./vision_disc_images/PNGImages/TUGraz_cars/carsgraz_258.png,./vision_disc_images/GTMasks/TUGraz_cars/carsgraz_258.png
./vision_disc_images/PNGImages/TUGraz_cars/carsgraz_259.png,./vision_disc_images/GTMasks/TUGraz_cars/carsgraz_259.png
./vision_disc_images/PNGImages/TUGraz_cars/carsgraz_260.png,./vision_disc_images/GTMasks/TUGraz_cars/carsgraz_260.png
./vision_disc_images/PNGImages/TUGraz_cars/carsgraz_261.png,./vision_disc_images/GTMasks/TUGraz_cars/carsgraz_261.png
./vision_disc_images/PNGImages/TUGraz_cars/carsgraz_262.png,./vision_disc_images/GTMasks/TUGraz_cars/carsgraz_262.png
./vision_disc_images/PNGImages/TUGraz_cars/carsgraz_263.png,./vision_disc_images/GTMasks/TUGraz_cars/carsgraz_263.png
./vision_disc_images/PNGImages/TUGraz_cars/carsgraz_264.png,./vision_disc_images/GTMasks/TUGraz_cars/carsgraz_264.png
./vision_disc_images/PNGImages/TUGraz_cars/carsgraz_265.png,./vision_disc_images/GTMasks/TUGraz_cars/carsgraz_265.png
./vision_disc_images/PNGImages/TUGraz_cars/carsgraz_266.png,./vision_disc_images/GTMasks/TUGraz_cars/carsgraz_266.png
./vision_disc_images/PNGImages/TUGraz_cars/carsgraz_267.png,./vision_disc_images/GTMasks/TUGraz_cars/carsgraz_267.png
./vision_disc_images/PNGImages/TUGraz_cars/carsgraz_268.png,./vision_disc_images/GTMasks/TUGraz_cars/carsgraz_268.png
./vision_disc_images/PNGImages/TUGraz_cars/carsgraz_269.png,./vision_disc_images/GTMasks/TUGraz_cars/carsgraz_269.png
./vision_disc_images/PNGImages/TUGraz_cars/carsgraz_270.png,./vision_disc_images/GTMasks/TUGraz_cars/carsgraz_270.png
./vision_disc_images/PNGImages/TUGraz_cars/carsgraz_271.png,./vision_disc_images/GTMasks/TUGraz_cars/carsgraz_271.png
./vision_disc_images/PNGImages/TUGraz_cars/carsgraz_272.png,./vision_disc_images/GTMasks/TUGraz_cars/carsgraz_272.png
./vision_disc_images/PNGImages/TUGraz_cars/carsgraz_275.png,./vision_disc_images/GTMasks/TUGraz_cars/carsgraz_275.png
./vision_disc_images/PNGImages/TUGraz_cars/carsgraz_276.png,./vision_disc_images/GTMasks/TUGraz_cars/carsgraz_276.png
./vision_disc_images/PNGImages/TUGraz_cars/carsgraz_277.png,./vision_disc_images/GTMasks/TUGraz_cars/carsgraz_277.png
./vision_disc_images/PNGImages/TUGraz_cars/carsgraz_280.png,./vision_disc_images/GTMasks/TUGraz_cars/carsgraz_280.png
./vision_disc_images/PNGImages/TUGraz_cars/carsgraz_281.png,./vision_disc_images/GTMasks/TUGraz_cars/carsgraz_281.png
./vision_disc_images/PNGImages/TUGraz_cars/carsgraz_282.png,./vision_disc_images/GTMasks/TUGraz_cars/carsgraz_282.png
./vision_disc_images/PNGImages/TUGraz_cars/carsgraz_284.png,./vision_disc_images/GTMasks/TUGraz_cars/carsgraz_284.png
./vision_disc_images/PNGImages/TUGraz_cars/carsgraz_287.png,./vision_disc_images/GTMasks/TUGraz_cars/carsgraz_287.png
./vision_disc_images/PNGImages/TUGraz_cars/carsgraz_288.png,./vision_disc_images/GTMasks/TUGraz_cars/carsgraz_288.png
./vision_disc_images/PNGImages/TUGraz_cars/carsgraz_289.png,./vision_disc_images/GTMasks/TUGraz_cars/carsgraz_289.png
./vision_disc_images/PNGImages/TUGraz_cars/carsgraz_290.png,./vision_disc_images/GTMasks/TUGraz_cars/carsgraz_290.png
./vision_disc_images/PNGImages/TUGraz_cars/carsgraz_291.png,./vision_disc_images/GTMasks/TUGraz_cars/carsgraz_291.png
./vision_disc_images/PNGImages/TUGraz_cars/carsgraz_292.png,./vision_disc_images/GTMasks/TUGraz_cars/carsgraz_292.png
./vision_disc_images/PNGImages/TUGraz_cars/carsgraz_294.png,./vision_disc_images/GTMasks/TUGraz_cars/carsgraz_294.png
./vision_disc_images/PNGImages/TUGraz_cars/carsgraz_295.png,./vision_disc_images/GTMasks/TUGraz_cars/carsgraz_295.png
./vision_disc_images/PNGImages/TUGraz_cars/carsgraz_296.png,./vision_disc_images/GTMasks/TUGraz_cars/carsgraz_296.png
./vision_disc_images/PNGImages/TUGraz_cars/carsgraz_298.png,./vision_disc_images/GTMasks/TUGraz_cars/carsgraz_298.png
./vision_disc_images/PNGImages/TUGraz_cars/carsgraz_299.png,./vision_disc_images/GTMasks/TUGraz_cars/carsgraz_299.png
./vision_disc_images/PNGImages/TUGraz_person/person_001.png,./vision_disc_images/GTMasks/TUGraz_person/person_001.png
./vision_disc_images/PNGImages/TUGraz_person/person_002.png,./vision_disc_images/GTMasks/TUGraz_person/person_002.png
./vision_disc_images/PNGImages/TUGraz_person/person_003.png,./vision_disc_images/GTMasks/TUGraz_person/person_003.png
./vision_disc_images/PNGImages/TUGraz_person/person_004.png,./vision_disc_images/GTMasks/TUGraz_person/person_004.png
./vision_disc_images/PNGImages/TUGraz_person/person_005.png,./vision_disc_images/GTMasks/TUGraz_person/person_005.png
./vision_disc_images/PNGImages/TUGraz_person/person_006.png,./vision_disc_images/GTMasks/TUGraz_person/person_006.png
./vision_disc_images/PNGImages/TUGraz_person/person_007.png,./vision_disc_images/GTMasks/TUGraz_person/person_007.png
./vision_disc_images/PNGImages/TUGraz_person/person_008.png,./vision_disc_images/GTMasks/TUGraz_person/person_008.png
./vision_disc_images/PNGImages/TUGraz_person/person_009.png,./vision_disc_images/GTMasks/TUGraz_person/person_009.png
./vision_disc_images/PNGImages/TUGraz_person/person_011.png,./vision_disc_images/GTMasks/TUGraz_person/person_011.png
./vision_disc_images/PNGImages/TUGraz_person/person_012.png,./vision_disc_images/GTMasks/TUGraz_person/person_012.png
./vision_disc_images/PNGImages/TUGraz_person/person_013.png,./vision_disc_images/GTMasks/TUGraz_person/person_013.png
./vision_disc_images/PNGImages/TUGraz_person/person_015.png,./vision_disc_images/GTMasks/TUGraz_person/person_015.png
./vision_disc_images/PNGImages/TUGraz_person/person_016.png,./vision_disc_images/GTMasks/TUGraz_person/person_016.png
./vision_disc_images/PNGImages/TUGraz_person/person_018.png,./vision_disc_images/GTMasks/TUGraz_person/person_018.png
./vision_disc_images/PNGImages/TUGraz_person/person_019.png,./vision_disc_images/GTMasks/TUGraz_person/person_019.png
./vision_disc_images/PNGImages/TUGraz_person/person_020.png,./vision_disc_images/GTMasks/TUGraz_person/person_020.png
./vision_disc_images/PNGImages/TUGraz_person/person_021.png,./vision_disc_images/GTMasks/TUGraz_person/person_021.png
./vision_disc_images/PNGImages/TUGraz_person/person_022.png,./vision_disc_images/GTMasks/TUGraz_person/person_022.png
./vision_disc_images/PNGImages/TUGraz_person/person_023.png,./vision_disc_images/GTMasks/TUGraz_person/person_023.png
./vision_disc_images/PNGImages/TUGraz_person/person_024.png,./vision_disc_images/GTMasks/TUGraz_person/person_024.png
./vision_disc_images/PNGImages/TUGraz_person/person_025.png,./vision_disc_images/GTMasks/TUGraz_person/person_025.png
./vision_disc_images/PNGImages/TUGraz_person/person_027.png,./vision_disc_images/GTMasks/TUGraz_person/person_027.png
./vision_disc_images/PNGImages/TUGraz_person/person_029.png,./vision_disc_images/GTMasks/TUGraz_person/person_029.png
./vision_disc_images/PNGImages/TUGraz_person/person_031.png,./vision_disc_images/GTMasks/TUGraz_person/person_031.png
./vision_disc_images/PNGImages/TUGraz_person/person_032.png,./vision_disc_images/GTMasks/TUGraz_person/person_032.png
./vision_disc_images/PNGImages/TUGraz_person/person_033.png,./vision_disc_images/GTMasks/TUGraz_person/person_033.png
./vision_disc_images/PNGImages/TUGraz_person/person_034.png,./vision_disc_images/GTMasks/TUGraz_person/person_034.png
./vision_disc_images/PNGImages/TUGraz_person/person_035.png,./vision_disc_images/GTMasks/TUGraz_person/person_035.png
./vision_disc_images/PNGImages/TUGraz_person/person_036.png,./vision_disc_images/GTMasks/TUGraz_person/person_036.png
./vision_disc_images/PNGImages/TUGraz_person/person_038.png,./vision_disc_images/GTMasks/TUGraz_person/person_038.png
./vision_disc_images/PNGImages/TUGraz_person/person_039.png,./vision_disc_images/GTMasks/TUGraz_person/person_039.png
./vision_disc_images/PNGImages/TUGraz_person/person_041.png,./vision_disc_images/GTMasks/TUGraz_person/person_041.png
./vision_disc_images/PNGImages/TUGraz_person/person_042.png,./vision_disc_images/GTMasks/TUGraz_person/person_042.png
./vision_disc_images/PNGImages/TUGraz_person/person_043.png,./vision_disc_images/GTMasks/TUGraz_person/person_043.png
./vision_disc_images/PNGImages/TUGraz_person/person_045.png,./vision_disc_images/GTMasks/TUGraz_person/person_045.png
./vision_disc_images/PNGImages/TUGraz_person/person_046.png,./vision_disc_images/GTMasks/TUGraz_person/person_046.png
./vision_disc_images/PNGImages/TUGraz_person/person_047.png,./vision_disc_images/GTMasks/TUGraz_person/person_047.png
./vision_disc_images/PNGImages/TUGraz_person/person_048.png,./vision_disc_images/GTMasks/TUGraz_person/person_048.png
./vision_disc_images/PNGImages/TUGraz_person/person_049.png,./vision_disc_images/GTMasks/TUGraz_person/person_049.png
./vision_disc_images/PNGImages/TUGraz_person/person_050.png,./vision_disc_images/GTMasks/TUGraz_person/person_050.png
./vision_disc_images/PNGImages/TUGraz_person/person_051.png,./vision_disc_images/GTMasks/TUGraz_person/person_051.png
./vision_disc_images/PNGImages/TUGraz_person/person_052.png,./vision_disc_images/GTMasks/TUGraz_person/person_052.png
./vision_disc_images/PNGImages/TUGraz_person/person_053.png,./vision_disc_images/GTMasks/TUGraz_person/person_053.png
./vision_disc_images/PNGImages/TUGraz_person/person_054.png,./vision_disc_images/GTMasks/TUGraz_person/person_054.png
./vision_disc_images/PNGImages/TUGraz_person/person_055.png,./vision_disc_images/GTMasks/TUGraz_person/person_055.png
./vision_disc_images/PNGImages/TUGraz_person/person_056.png,./vision_disc_images/GTMasks/TUGraz_person/person_056.png
./vision_disc_images/PNGImages/TUGraz_person/person_057.png,./vision_disc_images/GTMasks/TUGraz_person/person_057.png
./vision_disc_images/PNGImages/TUGraz_person/person_058.png,./vision_disc_images/GTMasks/TUGraz_person/person_058.png
./vision_disc_images/PNGImages/TUGraz_person/person_059.png,./vision_disc_images/GTMasks/TUGraz_person/person_059.png
./vision_disc_images/PNGImages/TUGraz_person/person_060.png,./vision_disc_images/GTMasks/TUGraz_person/person_060.png
./vision_disc_images/PNGImages/TUGraz_person/person_061.png,./vision_disc_images/GTMasks/TUGraz_person/person_061.png
./vision_disc_images/PNGImages/TUGraz_person/person_062.png,./vision_disc_images/GTMasks/TUGraz_person/person_062.png
./vision_disc_images/PNGImages/TUGraz_person/person_063.png,./vision_disc_images/GTMasks/TUGraz_person/person_063.png
./vision_disc_images/PNGImages/TUGraz_person/person_064.png,./vision_disc_images/GTMasks/TUGraz_person/person_064.png
./vision_disc_images/PNGImages/TUGraz_person/person_065.png,./vision_disc_images/GTMasks/TUGraz_person/person_065.png
./vision_disc_images/PNGImages/TUGraz_person/person_066.png,./vision_disc_images/GTMasks/TUGraz_person/person_066.png
./vision_disc_images/PNGImages/TUGraz_person/person_067.png,./vision_disc_images/GTMasks/TUGraz_person/person_067.png
./vision_disc_images/PNGImages/TUGraz_person/person_069.png,./vision_disc_images/GTMasks/TUGraz_person/person_069.png
./vision_disc_images/PNGImages/TUGraz_person/person_071.png,./vision_disc_images/GTMasks/TUGraz_person/person_071.png
./vision_disc_images/PNGImages/TUGraz_person/person_072.png,./vision_disc_images/GTMasks/TUGraz_person/person_072.png
./vision_disc_images/PNGImages/TUGraz_person/person_073.png,./vision_disc_images/GTMasks/TUGraz_person/person_073.png
./vision_disc_images/PNGImages/TUGraz_person/person_074.png,./vision_disc_images/GTMasks/TUGraz_person/person_074.png
./vision_disc_images/PNGImages/TUGraz_person/person_075.png,./vision_disc_images/GTMasks/TUGraz_person/person_075.png
./vision_disc_images/PNGImages/TUGraz_person/person_076.png,./vision_disc_images/GTMasks/TUGraz_person/person_076.png
./vision_disc_images/PNGImages/TUGraz_person/person_077.png,./vision_disc_images/GTMasks/TUGraz_person/person_077.png
./vision_disc_images/PNGImages/TUGraz_person/person_078.png,./vision_disc_images/GTMasks/TUGraz_person/person_078.png
./vision_disc_images/PNGImages/TUGraz_person/person_079.png,./vision_disc_images/GTMasks/TUGraz_person/person_079.png
./vision_disc_images/PNGImages/TUGraz_person/person_080.png,./vision_disc_images/GTMasks/TUGraz_person/person_080.png
./vision_disc_images/PNGImages/TUGraz_person/person_081.png,./vision_disc_images/GTMasks/TUGraz_person/person_081.png
./vision_disc_images/PNGImages/TUGraz_person/person_082.png,./vision_disc_images/GTMasks/TUGraz_person/person_082.png
./vision_disc_images/PNGImages/TUGraz_person/person_083.png,./vision_disc_images/GTMasks/TUGraz_person/person_083.png
./vision_disc_images/PNGImages/TUGraz_person/person_084.png,./vision_disc_images/GTMasks/TUGraz_person/person_084.png
./vision_disc_images/PNGImages/TUGraz_person/person_086.png,./vision_disc_images/GTMasks/TUGraz_person/person_086.png
./vision_disc_images/PNGImages/TUGraz_person/person_087.png,./vision_disc_images/GTMasks/TUGraz_person/person_087.png
./vision_disc_images/PNGImages/TUGraz_person/person_088.png,./vision_disc_images/GTMasks/TUGraz_person/person_088.png
./vision_disc_images/PNGImages/TUGraz_person/person_089.png,./vision_disc_images/GTMasks/TUGraz_person/person_089.png
./vision_disc_images/PNGImages/TUGraz_person/person_091.png,./vision_disc_images/GTMasks/TUGraz_person/person_091.png
./vision_disc_images/PNGImages/TUGraz_person/person_092.png,./vision_disc_images/GTMasks/TUGraz_person/person_092.png
./vision_disc_images/PNGImages/TUGraz_person/person_093.png,./vision_disc_images/GTMasks/TUGraz_person/person_093.png
./vision_disc_images/PNGImages/TUGraz_person/person_094.png,./vision_disc_images/GTMasks/TUGraz_person/person_094.png
./vision_disc_images/PNGImages/TUGraz_person/person_095.png,./vision_disc_images/GTMasks/TUGraz_person/person_095.png
./vision_disc_images/PNGImages/TUGraz_person/person_096.png,./vision_disc_images/GTMasks/TUGraz_person/person_096.png
./vision_disc_images/PNGImages/TUGraz_person/person_097.png,./vision_disc_images/GTMasks/TUGraz_person/person_097.png
./vision_disc_images/PNGImages/TUGraz_person/person_098.png,./vision_disc_images/GTMasks/TUGraz_person/person_098.png
./vision_disc_images/PNGImages/TUGraz_person/person_099.png,./vision_disc_images/GTMasks/TUGraz_person/person_099.png
./vision_disc_images/PNGImages/TUGraz_person/person_100.png,./vision_disc_images/GTMasks/TUGraz_person/person_100.png
./vision_disc_images/PNGImages/TUGraz_person/person_101.png,./vision_disc_images/GTMasks/TUGraz_person/person_101.png
./vision_disc_images/PNGImages/TUGraz_person/person_102.png,./vision_disc_images/GTMasks/TUGraz_person/person_102.png
./vision_disc_images/PNGImages/TUGraz_person/person_103.png,./vision_disc_images/GTMasks/TUGraz_person/person_103.png
./vision_disc_images/PNGImages/TUGraz_person/person_104.png,./vision_disc_images/GTMasks/TUGraz_person/person_104.png
./vision_disc_images/PNGImages/TUGraz_person/person_105.png,./vision_disc_images/GTMasks/TUGraz_person/person_105.png
./vision_disc_images/PNGImages/TUGraz_person/person_106.png,./vision_disc_images/GTMasks/TUGraz_person/person_106.png
./vision_disc_images/PNGImages/TUGraz_person/person_107.png,./vision_disc_images/GTMasks/TUGraz_person/person_107.png
./vision_disc_images/PNGImages/TUGraz_person/person_108.png,./vision_disc_images/GTMasks/TUGraz_person/person_108.png
./vision_disc_images/PNGImages/TUGraz_person/person_109.png,./vision_disc_images/GTMasks/TUGraz_person/person_109.png
./vision_disc_images/PNGImages/TUGraz_person/person_112.png,./vision_disc_images/GTMasks/TUGraz_person/person_112.png
./vision_disc_images/PNGImages/TUGraz_person/person_114.png,./vision_disc_images/GTMasks/TUGraz_person/person_114.png
./vision_disc_images/PNGImages/TUGraz_person/person_115.png,./vision_disc_images/GTMasks/TUGraz_person/person_115.png
./vision_disc_images/PNGImages/TUGraz_person/person_116.png,./vision_disc_images/GTMasks/TUGraz_person/person_116.png
./vision_disc_images/PNGImages/TUGraz_person/person_117.png,./vision_disc_images/GTMasks/TUGraz_person/person_117.png
./vision_disc_images/PNGImages/TUGraz_person/person_118.png,./vision_disc_images/GTMasks/TUGraz_person/person_118.png
./vision_disc_images/PNGImages/TUGraz_person/person_119.png,./vision_disc_images/GTMasks/TUGraz_person/person_119.png
./vision_disc_images/PNGImages/TUGraz_person/person_120.png,./vision_disc_images/GTMasks/TUGraz_person/person_120.png
./vision_disc_images/PNGImages/TUGraz_person/person_121.png,./vision_disc_images/GTMasks/TUGraz_person/person_121.png
./vision_disc_images/PNGImages/TUGraz_person/person_122.png,./vision_disc_images/GTMasks/TUGraz_person/person_122.png
./vision_disc_images/PNGImages/TUGraz_person/person_124.png,./vision_disc_images/GTMasks/TUGraz_person/person_124.png
./vision_disc_images/PNGImages/TUGraz_person/person_128.png,./vision_disc_images/GTMasks/TUGraz_person/person_128.png
./vision_disc_images/PNGImages/TUGraz_person/person_130.png,./vision_disc_images/GTMasks/TUGraz_person/person_130.png
./vision_disc_images/PNGImages/TUGraz_person/person_131.png,./vision_disc_images/GTMasks/TUGraz_person/person_131.png
./vision_disc_images/PNGImages/TUGraz_person/person_136.png,./vision_disc_images/GTMasks/TUGraz_person/person_136.png
./vision_disc_images/PNGImages/TUGraz_person/person_139.png,./vision_disc_images/GTMasks/TUGraz_person/person_139.png
./vision_disc_images/PNGImages/TUGraz_person/person_140.png,./vision_disc_images/GTMasks/TUGraz_person/person_140.png
./vision_disc_images/PNGImages/TUGraz_person/person_141.png,./vision_disc_images/GTMasks/TUGraz_person/person_141.png
./vision_disc_images/PNGImages/TUGraz_person/person_145.png,./vision_disc_images/GTMasks/TUGraz_person/person_145.png
./vision_disc_images/PNGImages/TUGraz_person/person_151.png,./vision_disc_images/GTMasks/TUGraz_person/person_151.png
./vision_disc_images/PNGImages/TUGraz_person/person_152.png,./vision_disc_images/GTMasks/TUGraz_person/person_152.png
./vision_disc_images/PNGImages/TUGraz_person/person_153.png,./vision_disc_images/GTMasks/TUGraz_person/person_153.png
./vision_disc_images/PNGImages/TUGraz_person/person_154.png,./vision_disc_images/GTMasks/TUGraz_person/person_154.png
./vision_disc_images/PNGImages/TUGraz_person/person_164.png,./vision_disc_images/GTMasks/TUGraz_person/person_164.png
./vision_disc_images/PNGImages/TUGraz_person/person_165.png,./vision_disc_images/GTMasks/TUGraz_person/person_165.png
./vision_disc_images/PNGImages/TUGraz_person/person_169.png,./vision_disc_images/GTMasks/TUGraz_person/person_169.png
./vision_disc_images/PNGImages/TUGraz_person/person_170.png,./vision_disc_images/GTMasks/TUGraz_person/person_170.png
./vision_disc_images/PNGImages/TUGraz_person/person_171.png,./vision_disc_images/GTMasks/TUGraz_person/person_171.png
./vision_disc_images/PNGImages/TUGraz_person/person_174.png,./vision_disc_images/GTMasks/TUGraz_person/person_174.png
./vision_disc_images/PNGImages/TUGraz_person/person_178.png,./vision_disc_images/GTMasks/TUGraz_person/person_178.png
./vision_disc_images/PNGImages/TUGraz_person/person_179.png,./vision_disc_images/GTMasks/TUGraz_person/person_179.png
./vision_disc_images/PNGImages/TUGraz_person/person_180.png,./vision_disc_images/GTMasks/TUGraz_person/person_180.png
./vision_disc_images/PNGImages/TUGraz_person/person_183.png,./vision_disc_images/GTMasks/TUGraz_person/person_183.png
./vision_disc_images/PNGImages/TUGraz_person/person_184.png,./vision_disc_images/GTMasks/TUGraz_person/person_184.png
./vision_disc_images/PNGImages/TUGraz_person/person_186.png,./vision_disc_images/GTMasks/TUGraz_person/person_186.png
./vision_disc_images/PNGImages/TUGraz_person/person_187.png,./vision_disc_images/GTMasks/TUGraz_person/person_187.png
./vision_disc_images/PNGImages/TUGraz_person/person_189.png,./vision_disc_images/GTMasks/TUGraz_person/person_189.png
./vision_disc_images/PNGImages/TUGraz_person/person_191.png,./vision_disc_images/GTMasks/TUGraz_person/person_191.png
./vision_disc_images/PNGImages/TUGraz_person/person_193.png,./vision_disc_images/GTMasks/TUGraz_person/person_193.png
./vision_disc_images/PNGImages/TUGraz_person/person_197.png,./vision_disc_images/GTMasks/TUGraz_person/person_197.png
./vision_disc_images/PNGImages/TUGraz_person/person_210.png,./vision_disc_images/GTMasks/TUGraz_person/person_210.png
./vision_disc_images/PNGImages/TUGraz_person/person_212.png,./vision_disc_images/GTMasks/TUGraz_person/person_212.png
./vision_disc_images/PNGImages/TUGraz_person/person_216.png,./vision_disc_images/GTMasks/TUGraz_person/person_216.png
./vision_disc_images/PNGImages/TUGraz_person/person_217.png,./vision_disc_images/GTMasks/TUGraz_person/person_217.png
./vision_disc_images/PNGImages/TUGraz_person/person_223.png,./vision_disc_images/GTMasks/TUGraz_person/person_223.png
./vision_disc_images/PNGImages/TUGraz_person/person_225.png,./vision_disc_images/GTMasks/TUGraz_person/person_225.png
./vision_disc_images/PNGImages/TUGraz_person/person_228.png,./vision_disc_images/GTMasks/TUGraz_person/person_228.png
./vision_disc_images/PNGImages/TUGraz_person/person_236.png,./vision_disc_images/GTMasks/TUGraz_person/person_236.png
./vision_disc_images/PNGImages/TUGraz_person/person_238.png,./vision_disc_images/GTMasks/TUGraz_person/person_238.png
./vision_disc_images/PNGImages/TUGraz_person/person_239.png,./vision_disc_images/GTMasks/TUGraz_person/person_239.png
./vision_disc_images/PNGImages/TUGraz_person/person_242.png,./vision_disc_images/GTMasks/TUGraz_person/person_242.png
./vision_disc_images/PNGImages/TUGraz_person/person_249.png,./vision_disc_images/GTMasks/TUGraz_person/person_249.png
./vision_disc_images/PNGImages/TUGraz_person/person_252.png,./vision_disc_images/GTMasks/TUGraz_person/person_252.png
./vision_disc_images/PNGImages/TUGraz_person/person_253.png,./vision_disc_images/GTMasks/TUGraz_person/person_253.png
./vision_disc_images/PNGImages/TUGraz_person/person_256.png,./vision_disc_images/GTMasks/TUGraz_person/person_256.png
./vision_disc_images/PNGImages/TUGraz_person/person_257.png,./vision_disc_images/GTMasks/TUGraz_person/person_257.png
./vision_disc_images/PNGImages/TUGraz_person/person_274.png,./vision_disc_images/GTMasks/TUGraz_person/person_274.png
./vision_disc_images/PNGImages/TUGraz_person/person_276.png,./vision_disc_images/GTMasks/TUGraz_person/person_276.png
./vision_disc_images/PNGImages/TUGraz_person/person_287.png,./vision_disc_images/GTMasks/TUGraz_person/person_287.png
./vision_disc_images/PNGImages/TUGraz_person/person_293.png,./vision_disc_images/GTMasks/TUGraz_person/person_293.png
./vision_disc_images/PNGImages/TUGraz_person/person_294.png,./vision_disc_images/GTMasks/TUGraz_person/person_294.png
./vision_disc_images/PNGImages/TUGraz_person/person_295.png,./vision_disc_images/GTMasks/TUGraz_person/person_295.png
./vision_disc_images/PNGImages/TUGraz_person/person_298.png,./vision_disc_images/GTMasks/TUGraz_person/person_298.png